{ "page": 1, "total_results": 10000, "total_pages": 500, "results": [{ "popularity": 312.161, "vote_count": 299, "video": false, "poster_path": "\/AsdB9A2XGalCZVjlyG9tRf03IfW.jpg", "id": 516486, "adult": false, "backdrop_path": "\/xXBnM6uSTk6qqCf0SRZKXcga9Ba.jpg", "original_language": "en", "original_title": "Greyhound", "genre_ids": [28, 18, 10752], "title": "Greyhound", "vote_average": 7.3, "overview": "A first-time captain leads a convoy of allied ships carrying thousands of soldiers across the treacherous waters of the “Black Pit” to the front lines of WW2. With no air cover protection for 5 days, the captain and his convoy must battle the surrounding enemy Nazi U-boats in order to give the allies a chance to win the war.", "release_date": "2020-07-10" }, { "popularity": 291.731, "vote_count": 889, "video": false, "poster_path": "\/cjr4NWURcVN3gW5FlHeabgBHLrY.jpg", "id": 547016, "adult": false, "backdrop_path": "\/m0ObOaJBerZ3Unc74l471ar8Iiy.jpg", "original_language": "en", "original_title": "The Old Guard", "genre_ids": [28, 14], "title": "The Old Guard", "vote_average": 7.4, "overview": "Four undying warriors who've secretly protected humanity for centuries become targeted for their mysterious powers just as they discover a new immortal.", "release_date": "2020-07-10" }, { "popularity": 115.471, "vote_count": 4413, "video": false, "poster_path": "\/m5h3NtZ2ZfryIHl1MvatmANvIqQ.jpg", "id": 49017, "adult": false, "backdrop_path": "\/f02FFv77Rh62633YEjimv7C6JM3.jpg", "original_language": "en", "original_title": "Dracula Untold", "genre_ids": [28, 18, 14, 27, 10752], "title": "Dracula Untold", "vote_average": 6.3, "overview": "Vlad Tepes is a great hero, but when he learns the Sultan is preparing for battle and needs to form an army of 1,000 boys, he vows to find a way to protect his family. Vlad turns to dark forces in order to get the power to destroy his enemies and agrees to go from hero to monster as he's turned into the mythological vampire, Dracula.", "release_date": "2014-10-01" }, { "popularity": 95.621, "vote_count": 152, "video": false, "poster_path": "\/hPkqY2EMqWUnFEoedukilIUieVG.jpg", "id": 531876, "adult": false, "backdrop_path": "\/n1RohH2VoK1CdVI2fXvcP19dSlm.jpg", "original_language": "en", "original_title": "The Outpost", "genre_ids": [28, 18, 36, 10752], "title": "The Outpost", "vote_average": 7.1, "overview": "A small unit of U.S. soldiers, alone at the remote Combat Outpost Keating, located deep in the valley of three mountains in Afghanistan, battles to defend against an overwhelming force of Taliban fighters in a coordinated attack. The Battle of Kamdesh, as it was known, was the bloodiest American engagement of the Afghan War in 2009 and Bravo Troop 3-61 CAV became one of the most decorated units of the 19-year conflict.", "release_date": "2020-06-24" }, { "popularity": 94.196, "vote_count": 5018, "video": false, "poster_path": "\/h4VB6m0RwcicVEZvzftYZyKXs6K.jpg", "id": 495764, "adult": false, "backdrop_path": "\/9xNOiv6DZZjH7ABoUUDP0ZynouU.jpg", "original_language": "en", "original_title": "Birds of Prey (and the Fantabulous Emancipation of One Harley Quinn)", "genre_ids": [28, 35, 80, 18], "title": "Birds of Prey (and the Fantabulous Emancipation of One Harley Quinn)", "vote_average": 7.2, "overview": "Harley Quinn joins forces with a singer, an assassin and a police detective to help a young girl who had a hit placed on her after she stole a rare diamond from a crime lord.", "release_date": "2020-02-05" }, { "popularity": 93.168, "vote_count": 5093, "video": false, "poster_path": "\/aQvJ5WPzZgYVDrxLX4R6cLJCEaQ.jpg", "id": 454626, "adult": false, "backdrop_path": "\/stmYfCUGd8Iy6kAMBr6AmWqx8Bq.jpg", "original_language": "en", "original_title": "Sonic the Hedgehog", "genre_ids": [28, 35, 878, 10751], "title": "Sonic the Hedgehog", "vote_average": 7.5, "overview": "Based on the global blockbuster videogame franchise from Sega, Sonic the Hedgehog tells the story of the world’s speediest hedgehog as he embraces his new home on Earth. In this live-action adventure comedy, Sonic and his new best friend team up to defend the planet from the evil genius Dr. Robotnik and his plans for world domination.", "release_date": "2020-02-12" }, { "popularity": 69.772, "vote_count": 300, "video": false, "poster_path": "\/rpqfpSglhDpwihzsLaoketuYKbd.jpg", "id": 514207, "adult": false, "backdrop_path": "\/cbJNZeFkiG4ggsNcwzBs6yeCXga.jpg", "original_language": "ru", "original_title": "Вторжение", "genre_ids": [28, 878], "title": "Invasion", "vote_average": 7.1, "overview": "After the fall of the alien ship, it took three years. The catastrophe turned the girl's life from Chertanovo and forever changed our view of the universe. It seems that this was the biggest test for all of us. But mankind does not yet know that very soon he will have to experience a new meeting.", "release_date": "2020-01-01" }, { "popularity": 76.43, "vote_count": 18931, "video": false, "poster_path": "\/7WsyChQLEftFiDOVTGkv3hFpyyt.jpg", "id": 299536, "adult": false, "backdrop_path": "\/lmZFxXgJE3vgrciwuDib0N8CfQo.jpg", "original_language": "en", "original_title": "Avengers: Infinity War", "genre_ids": [28, 12, 878], "title": "Avengers: Infinity War", "vote_average": 8.3, "overview": "As the Avengers and their allies have continued to protect the world from threats too large for any one hero to handle, a new danger has emerged from the cosmic shadows: Thanos. A despot of intergalactic infamy, his goal is to collect all six Infinity Stones, artifacts of unimaginable power, and use them to inflict his twisted will on all of reality. Everything the Avengers have fought for has led up to this moment - the fate of Earth and existence itself has never been more uncertain.", "release_date": "2018-04-25" }, { "popularity": 61.088, "vote_count": 4, "video": false, "poster_path": "\/2LXQUhkzo27jKotK7poHkNaw59B.jpg", "id": 582218, "adult": false, "backdrop_path": "\/fHkOalncR4nYkUsiEhEN3Y20Nd2.jpg", "original_language": "en", "original_title": "Psych 2: Lassie Come Home", "genre_ids": [28, 35, 80], "title": "Psych 2: Lassie Come Home", "vote_average": 6.3, "overview": "After Santa Barbara Police Chief Carlton Lassiter is ambushed and left for dead, Shawn and Gus return to help him and find themselves embroiled in a case involving the personal, the professional—and even the supernatural.", "release_date": "2020-07-15" }, { "popularity": 66.342, "vote_count": 2836, "video": false, "poster_path": "\/8WUVHemHFH2ZIP6NWkwlHWsyrEL.jpg", "id": 338762, "adult": false, "backdrop_path": "\/lP5eKh8WOcPysfELrUpGhHJGZEH.jpg", "original_language": "en", "original_title": "Bloodshot", "genre_ids": [28, 878], "title": "Bloodshot", "vote_average": 6.9, "overview": "After he and his wife are murdered, marine Ray Garrison is resurrected by a team of scientists. Enhanced with nanotechnology, he becomes a superhuman, biotech killing machine—'Bloodshot'. As Ray first trains with fellow super-soldiers, he cannot recall anything from his former life. But when his memories flood back and he remembers the man that killed both him and his wife, he breaks out of the facility to get revenge, only to discover that there's more to the conspiracy than he thought.", "release_date": "2020-03-05" }, { "popularity": 73.881, "vote_count": 13957, "video": false, "poster_path": "\/6FfCtAuVAW8XJjZ7eWeLibRLWTw.jpg", "id": 11, "adult": false, "backdrop_path": "\/zqkmTXzjkAgXmEWLRsY4UpTWCeo.jpg", "original_language": "en", "original_title": "Star Wars", "genre_ids": [28, 12, 878], "title": "Star Wars", "vote_average": 8.2, "overview": "Princess Leia is captured and held hostage by the evil Imperial forces in their effort to take over the galactic Empire. Venturesome Luke Skywalker and dashing captain Han Solo team together with the loveable robot duo R2-D2 and C-3PO to rescue the beautiful princess and restore peace and justice in the Empire.", "release_date": "1977-05-25" }, { "popularity": 64.131, "vote_count": 26468, "video": false, "poster_path": "\/9gk7adHYeDvHkCSEqAvQNLV5Uge.jpg", "id": 27205, "adult": false, "backdrop_path": "\/s3TBrRGB1iav7gFOCNx3H31MoES.jpg", "original_language": "en", "original_title": "Inception", "genre_ids": [28, 12, 878], "title": "Inception", "vote_average": 8.3, "overview": "Cobb, a skilled thief who commits corporate espionage by infiltrating the subconscious of his targets is offered a chance to regain his old life as payment for a task considered to be impossible: \"inception\", the implantation of another person's idea into a target's subconscious.", "release_date": "2010-07-15" }, { "popularity": 63.192, "vote_count": 2668, "video": false, "poster_path": "\/50kALxDX4mmzIRljbNbPY0u4cie.jpg", "id": 189, "adult": false, "backdrop_path": "\/f4KiaxSD5B8bcg5VLsvrDhaZlFu.jpg", "original_language": "en", "original_title": "Sin City: A Dame to Kill For", "genre_ids": [28, 80, 53], "title": "Sin City: A Dame to Kill For", "vote_average": 6.3, "overview": "Some of Sin City's most hard-boiled citizens cross paths with a few of its more reviled inhabitants.", "release_date": "2014-08-20" }, { "popularity": 43.018, "vote_count": 5, "video": false, "poster_path": "\/7S9RvfMBWSTlUZ4VbxDY7oLeenk.jpg", "id": 581392, "adult": false, "backdrop_path": "\/oamFZb8Gj5NJ24OLDd07wyNVX4N.jpg", "original_language": "ko", "original_title": "반도", "genre_ids": [28, 27, 53], "title": "Train to Busan Presents: Peninsula", "vote_average": 6.4, "overview": "Peninsula takes place four years after Train to Busan as the characters fight to escape the land that is in ruins due to an unprecedented disaster.", "release_date": "2020-07-15" }, { "popularity": 55.839, "vote_count": 4671, "video": false, "poster_path": "\/y95lQLnuNKdPAzw9F9Ab8kJ80c3.jpg", "id": 38700, "adult": false, "backdrop_path": "\/upUy2QhMZEmtypPW3PdieKLAHxh.jpg", "original_language": "en", "original_title": "Bad Boys for Life", "genre_ids": [28, 80, 53], "title": "Bad Boys for Life", "vote_average": 7.2, "overview": "Marcus and Mike are forced to confront new threats, career changes, and midlife crises as they join the newly created elite team AMMO of the Miami police department to take down the ruthless Armando Armas, the vicious leader of a Miami drug cartel.", "release_date": "2020-01-15" }, { "popularity": 59.739, "vote_count": 2682, "video": false, "poster_path": "\/wlfDxbGEsW58vGhFljKkcR5IxDj.jpg", "id": 545609, "adult": false, "backdrop_path": "\/1R6cvRtZgsYCkh8UFuWFN33xBP4.jpg", "original_language": "en", "original_title": "Extraction", "genre_ids": [28, 18, 53], "title": "Extraction", "vote_average": 7.4, "overview": "Tyler Rake, a fearless mercenary who offers his services on the black market, embarks on a dangerous mission when he is hired to rescue the kidnapped son of a Mumbai crime lord…", "release_date": "2020-04-24" }, { "popularity": 71.199, "vote_count": 5227, "video": false, "poster_path": "\/db32LaOibwEliAmSL2jjDF6oDdj.jpg", "id": 181812, "adult": false, "backdrop_path": "\/SPkEiZGxq5aHWQ2Zw7AITwSEo2.jpg", "original_language": "en", "original_title": "Star Wars: The Rise of Skywalker", "genre_ids": [28, 12, 878], "title": "Star Wars: The Rise of Skywalker", "vote_average": 6.6, "overview": "The surviving Resistance faces the First Order once again as the journey of Rey, Finn and Poe Dameron continues. With the power and knowledge of generations behind them, the final battle begins.", "release_date": "2019-12-18" }, { "popularity": 64.181, "vote_count": 2575, "video": false, "poster_path": "\/vqzNJRH4YyquRiWxCCOH0aXggHI.jpg", "id": 290859, "adult": false, "backdrop_path": "\/a6cDxdwaQIFjSkXf7uskg78ZyTq.jpg", "original_language": "en", "original_title": "Terminator: Dark Fate", "genre_ids": [28, 12, 878], "title": "Terminator: Dark Fate", "vote_average": 6.5, "overview": "Decades after Sarah Connor prevented Judgment Day, a lethal new Terminator is sent to eliminate the future leader of the resistance. In a fight to save mankind, battle-hardened Sarah Connor teams up with an unexpected ally and an enhanced super soldier to stop the deadliest Terminator yet.", "release_date": "2019-10-23" }, { "popularity": 65.092, "vote_count": 14165, "video": false, "poster_path": "\/or06FN3Dka5tukK1e9sl16pB3iy.jpg", "id": 299534, "adult": false, "backdrop_path": "\/7RyHsO4yDXtBv1zUU3mTpHeQ0d5.jpg", "original_language": "en", "original_title": "Avengers: Endgame", "genre_ids": [28, 12, 878], "title": "Avengers: Endgame", "vote_average": 8.3, "overview": "After the devastating events of Avengers: Infinity War, the universe is in ruins due to the efforts of the Mad Titan, Thanos. With the help of remaining allies, the Avengers must assemble once more in order to undo Thanos' actions and restore order to the universe once and for all, no matter what consequences may be in store.", "release_date": "2019-04-24" }, { "popularity": 57.408, "vote_count": 10044, "video": false, "poster_path": "\/xT98tLqatZPQApyRmlPL12LtiWp.jpg", "id": 122917, "adult": false, "backdrop_path": "\/bVmSXNgH1gpHYTDyF9Q826YwJT5.jpg", "original_language": "en", "original_title": "The Hobbit: The Battle of the Five Armies", "genre_ids": [28, 12, 14], "title": "The Hobbit: The Battle of the Five Armies", "vote_average": 7.3, "overview": "Immediately after the events of The Desolation of Smaug, Bilbo and the dwarves try to defend Erebor's mountain of treasure from others who claim it: the men of the ruined Laketown and the elves of Mirkwood. Meanwhile an army of Orcs led by Azog the Defiler is marching on Erebor, fueled by the rise of the dark lord Sauron. Dwarves, elves and men must unite, and the hope for Middle-Earth falls into Bilbo's hands.", "release_date": "2014-12-10" }] }