{ "page": 1, "total_results": 10000, "total_pages": 500, "results": [{ "popularity": 77.249, "vote_count": 3681, "video": false, "poster_path": "\/xvx4Yhf0DVH8G4LzNISpMfFBDy2.jpg", "id": 166428, "adult": false, "backdrop_path": "\/lFwykSz3Ykj1Q3JXJURnGUTNf1o.jpg", "original_language": "en", "original_title": "How to Train Your Dragon: The Hidden World", "genre_ids": [12, 16, 10751], "title": "How to Train Your Dragon: The Hidden World", "vote_average": 7.8, "overview": "As Hiccup fulfills his dream of creating a peaceful dragon utopia, Toothless’ discovery of an untamed, elusive mate draws the Night Fury away. When danger mounts at home and Hiccup’s reign as village chief is tested, both dragon and rider must make impossible decisions to save their kind.", "release_date": "2019-01-03" }, { "popularity": 77.391, "vote_count": 1259, "video": false, "poster_path": "\/jHo2M1OiH9Re33jYtUQdfzPeUkx.jpg", "id": 385103, "adult": false, "backdrop_path": "\/fKtYXUhX5fxMxzQfyUcQW9Shik6.jpg", "original_language": "en", "original_title": "Scoob!", "genre_ids": [12, 16, 35, 9648, 10751], "title": "Scoob!", "vote_average": 8, "overview": "In Scooby-Doo’s greatest adventure yet, see the never-before told story of how lifelong friends Scooby and Shaggy first met and how they joined forces with young detectives Fred, Velma, and Daphne to form the famous Mystery Inc. Now, with hundreds of cases solved, Scooby and the gang face their biggest, toughest mystery ever: an evil plot to unleash the ghost dog Cerberus upon the world. As they race to stop this global “dogpocalypse,” the gang discovers that Scooby has a secret legacy and an epic destiny greater than anyone ever imagined.", "release_date": "2020-05-15" }, { "popularity": 67.21, "vote_count": 5430, "video": false, "poster_path": "\/pjeMs3yqRmFL3giJy4PMXWZTTPa.jpg", "id": 330457, "adult": false, "backdrop_path": "\/xJWPZIYOEFIjZpBL7SVBGnzRYXp.jpg", "original_language": "en", "original_title": "Frozen II", "genre_ids": [12, 16, 10751], "title": "Frozen II", "vote_average": 7.3, "overview": "Elsa, Anna, Kristoff and Olaf head far into the forest to learn the truth about an ancient mystery of their kingdom.", "release_date": "2019-11-20" }, { "popularity": 59.214, "vote_count": 6350, "video": false, "poster_path": "\/dzBtMocZuJbjLOXvrl4zGYigDzh.jpg", "id": 420818, "adult": false, "backdrop_path": "\/nRXO2SnOA75OsWhNhXstHB8ZmI3.jpg", "original_language": "en", "original_title": "The Lion King", "genre_ids": [12, 16, 10402, 10751], "title": "The Lion King", "vote_average": 7.2, "overview": "Simba idolizes his father, King Mufasa, and takes to heart his own royal destiny. But not everyone in the kingdom celebrates the new cub's arrival. Scar, Mufasa's brother—and former heir to the throne—has plans of his own. The battle for Pride Rock is ravaged with betrayal, tragedy and drama, ultimately resulting in Simba's exile. With help from a curious pair of newfound friends, Simba will have to figure out how to grow up and take back what is rightfully his.", "release_date": "2019-07-12" }, { "popularity": 60.184, "id": 508439, "video": false, "vote_count": 2570, "vote_average": 7.9, "title": "Onward", "release_date": "2020-02-29", "original_language": "en", "original_title": "Onward", "genre_ids": [16, 10751, 12, 35, 14], "backdrop_path": "\/xFxk4vnirOtUxpOEWgA1MCRfy6J.jpg", "adult": false, "overview": "In a suburban fantasy world, two teenage elf brothers embark on an extraordinary quest to discover if there is still a little magic left out there.", "poster_path": "\/f4aul3FyD3jv3v4bul1IrkWZvzq.jpg" }, { "popularity": 40.851, "vote_count": 1427, "video": false, "poster_path": "\/30YacPAcxpNemhhwX0PVUl9pVA3.jpg", "id": 431693, "adult": false, "backdrop_path": "\/lwSOhnpwrzjtKi2RD3e5RAcGzvt.jpg", "original_language": "en", "original_title": "Spies in Disguise", "genre_ids": [28, 12, 16, 35], "title": "Spies in Disguise", "vote_average": 7.7, "overview": "Super spy Lance Sterling and scientist Walter Beckett are almost exact opposites. Lance is smooth, suave and debonair. Walter is… not. But what Walter lacks in social skills he makes up for in smarts and invention, creating the awesome gadgets Lance uses on his epic missions. But when events take an unexpected turn, Walter and Lance suddenly have to rely on each other in a whole new way.", "release_date": "2019-12-04" }, { "popularity": 43.706, "id": 150540, "video": false, "vote_count": 15156, "vote_average": 7.9, "title": "Inside Out", "release_date": "2015-06-09", "original_language": "en", "original_title": "Inside Out", "genre_ids": [18, 35, 16, 10751], "backdrop_path": "\/9cGSFGZVVLsrnbs0AFPDh6X2ynl.jpg", "adult": false, "overview": "Growing up can be a bumpy road, and it's no exception for Riley, who is uprooted from her Midwest life when her father starts a new job in San Francisco. Riley's guiding emotions— Joy, Fear, Anger, Disgust and Sadness—live in Headquarters, the control centre inside Riley's mind, where they help advise her through everyday life and tries to keep things positive, but the emotions conflict on how best to navigate a new city, house and school.", "poster_path": "\/lRHE0vzf3oYJrhbsHXjIkF4Tl5A.jpg" }, { "popularity": 41.781, "vote_count": 204, "video": false, "poster_path": "\/zGVbrulkupqpbwgiNedkJPyQum4.jpg", "id": 592350, "adult": false, "backdrop_path": "\/9guoVF7zayiiUq5ulKQpt375VIy.jpg", "original_language": "ja", "original_title": "僕のヒーローアカデミア THE MOVIE ヒーローズ：ライジング", "genre_ids": [28, 16], "title": "My Hero Academia: Heroes Rising", "vote_average": 8.9, "overview": "Class 1-A visits Nabu Island where they finally get to do some real hero work. The place is so peaceful that it's more like a vacation … until they're attacked by a villain with an unfathomable Quirk! His power is eerily familiar, and it looks like Shigaraki had a hand in the plan. But with All Might retired and citizens' lives on the line, there's no time for questions. Deku and his friends are the next generation of heroes, and they're the island's only hope.", "release_date": "2019-12-20" }, { "popularity": 38.501, "vote_count": 12076, "video": false, "poster_path": "\/kgwjIb2JDHRhNk13lmSxiClFjVk.jpg", "id": 109445, "adult": false, "backdrop_path": "\/ggCYp26DcaBiGsU2KdVSlNg3y4L.jpg", "original_language": "en", "original_title": "Frozen", "genre_ids": [12, 16, 10751], "title": "Frozen", "vote_average": 7.3, "overview": "Young princess Anna of Arendelle dreams about finding true love at her sister Elsa’s coronation. Fate takes her on a dangerous journey in an attempt to end the eternal winter that has fallen over the kingdom. She's accompanied by ice delivery man Kristoff, his reindeer Sven, and snowman Olaf. On an adventure where she will find out what friendship, courage, family, and true love really means.", "release_date": "2013-11-27" }, { "popularity": 51.512, "vote_count": 265, "video": false, "poster_path": "\/MBiKqTsouYqAACLYNDadsjhhC0.jpg", "id": 486589, "adult": false, "backdrop_path": "\/bga3i5jcejBekr2FCGJga1fYCh.jpg", "original_language": "en", "original_title": "Red Shoes and the Seven Dwarfs", "genre_ids": [16, 10749, 10751], "title": "Red Shoes and the Seven Dwarfs", "vote_average": 7.2, "overview": "Princes who have been turned into Dwarfs seek the red shoes of a lady in order to break the spell, although it will not be easy.", "release_date": "2019-07-25" }, { "popularity": 45.501, "vote_count": 931, "video": false, "poster_path": "\/7W0G3YECgDAfnuiHG91r8WqgIOe.jpg", "id": 446893, "adult": false, "backdrop_path": "\/qsxhnirlp7y4Ae9bd11oYJSX59j.jpg", "original_language": "en", "original_title": "Trolls World Tour", "genre_ids": [12, 16, 35, 14, 10402, 10751], "title": "Trolls World Tour", "vote_average": 7.7, "overview": "Queen Poppy and Branch make a surprising discovery — there are other Troll worlds beyond their own, and their distinct differences create big clashes between these various tribes. When a mysterious threat puts all of the Trolls across the land in danger, Poppy, Branch, and their band of friends must embark on an epic quest to create harmony among the feuding Trolls to unite them against certain doom.", "release_date": "2020-03-12" }, { "popularity": 47.08, "vote_count": 4666, "video": false, "poster_path": "\/rtGDOeG9LzoerkDGZF9dnVeLppL.jpg", "id": 8392, "adult": false, "backdrop_path": "\/95ozIP0A2fKaAXxwDxUEVn74Iux.jpg", "original_language": "ja", "original_title": "となりのトトロ", "genre_ids": [16, 14, 10751], "title": "My Neighbor Totoro", "vote_average": 8.1, "overview": "Two sisters move to the country with their father in order to be closer to their hospitalized mother, and discover the surrounding trees are inhabited by Totoros, magical spirits of the forest. When the youngest runs away from home, the older sister seeks help from the spirits to find her.", "release_date": "1988-04-16" }, { "popularity": 35.901, "vote_count": 5519, "video": false, "poster_path": "\/w9kR8qbmQ01HwnvK4alvnQ2ca0L.jpg", "id": 301528, "adult": false, "backdrop_path": "\/q62bpQ67qaXY0u6b2wFEnQYIbPd.jpg", "original_language": "en", "original_title": "Toy Story 4", "genre_ids": [12, 16, 35, 14, 10751], "title": "Toy Story 4", "vote_average": 7.6, "overview": "Woody has always been confident about his place in the world and that his priority is taking care of his kid, whether that's Andy or Bonnie. But when Bonnie adds a reluctant new toy called \"Forky\" to her room, a road trip adventure alongside old and new friends will show Woody how big the world can be for a toy.", "release_date": "2019-06-19" }, { "popularity": 34.34, "vote_count": 12635, "video": false, "poster_path": "\/uXDfjJbdP4ijW5hWSBrPrlKpxab.jpg", "id": 862, "adult": false, "backdrop_path": "\/lxD5ak7BOoinRNehOCA85CQ8ubr.jpg", "original_language": "en", "original_title": "Toy Story", "genre_ids": [16, 35, 10751], "title": "Toy Story", "vote_average": 7.9, "overview": "Led by Woody, Andy's toys live happily in his room until Andy's birthday brings Buzz Lightyear onto the scene. Afraid of losing his place in Andy's heart, Woody plots against Buzz. But when circumstances separate Buzz and Woody from their owner, the duo eventually learns to put aside their differences.", "release_date": "1995-10-30" }, { "popularity": 42.199, "vote_count": 11930, "video": false, "poster_path": "\/hlK0e0wAQ3VLuJcsfIYPvb4JVud.jpg", "id": 269149, "adult": false, "backdrop_path": "\/p2fRZzxla6NoRbIH2KOZq0gHb5S.jpg", "original_language": "en", "original_title": "Zootopia", "genre_ids": [12, 16, 35, 10751], "title": "Zootopia", "vote_average": 7.7, "overview": "Determined to prove herself, Officer Judy Hopps, the first bunny on Zootopia's police force, jumps at the chance to crack her first case - even if it means partnering with scam-artist fox Nick Wilde to solve the mystery.", "release_date": "2016-02-11" }, { "popularity": 38.925, "vote_count": 12945, "video": false, "poster_path": "\/sgheSKxZkttIe8ONsf2sWXPgip3.jpg", "id": 585, "adult": false, "backdrop_path": "\/sDTnMOJ3H5wI38OxObmCtK7wfd5.jpg", "original_language": "en", "original_title": "Monsters, Inc.", "genre_ids": [16, 35, 10751], "title": "Monsters, Inc.", "vote_average": 7.8, "overview": "James Sullivan and Mike Wazowski are monsters, they earn their living scaring children and are the best in the business... even though they're more afraid of the children than they are of them. When a child accidentally enters their world, James and Mike suddenly find that kids are not to be afraid of and they uncover a conspiracy that could threaten all children across the world.", "release_date": "2001-11-01" }, { "popularity": 34.319, "vote_count": 6021, "video": false, "poster_path": "\/q719jXXEzOoYaps6babgKnONONX.jpg", "id": 372058, "adult": false, "backdrop_path": "\/mMtUybQ6hL24FXo0F3Z4j2KG7kZ.jpg", "original_language": "ja", "original_title": "君の名は。", "genre_ids": [16, 18, 10749], "title": "Your Name.", "vote_average": 8.6, "overview": "High schoolers Mitsuha and Taki are complete strangers living separate lives. But one night, they suddenly switch places. Mitsuha wakes up in Taki’s body, and he in hers. This bizarre occurrence continues to happen randomly, and the two must adjust their lives around each other.", "release_date": "2016-08-26" }, { "popularity": 36.782, "vote_count": 7596, "video": false, "poster_path": "\/iiZZdoQBEYBv6id8su7ImL0oCbD.jpg", "id": 324857, "adult": false, "backdrop_path": "\/uUiId6cG32JSRI6RyBQSvQtLjz2.jpg", "original_language": "en", "original_title": "Spider-Man: Into the Spider-Verse", "genre_ids": [28, 12, 16, 35, 878], "title": "Spider-Man: Into the Spider-Verse", "vote_average": 8.4, "overview": "Miles Morales is juggling his life between being a high school student and being a spider-man. When Wilson \"Kingpin\" Fisk uses a super collider, others from across the Spider-Verse are transported to this dimension.", "release_date": "2018-12-06" }, { "popularity": 26.921, "id": 667520, "video": false, "vote_count": 294, "vote_average": 8.2, "title": "A Whisker Away", "release_date": "2020-06-18", "original_language": "ja", "original_title": "泣きたい私は猫をかぶる", "genre_ids": [16, 18, 10749, 14], "backdrop_path": "\/eHTZoXmB4vnDqANZXPZcdAiYQo5.jpg", "adult": false, "overview": "Miyo \"Muge\" Sasaki is a peculiar second-year junior high student who has fallen in love with her classmate Kento Hinode. Muge resolutely pursues Kento every day, but he takes no notice of her. Nevertheless, while carrying a secret she can tell no one, Muge continues to pursue Kento. Muge discovers a magic mask that allows her to transform into a cat named Tarō. The magic lets Muge get close to Kento, but eventually it may also make her unable to transform back to a human.", "poster_path": "\/8Ga1CI4ZIIF8fxyfjZ5sNlb75e4.jpg" }, { "popularity": 28.986, "vote_count": 8741, "video": false, "poster_path": "\/9lFKBtaVIhP7E2Pk0IY1CwTKTMZ.jpg", "id": 260513, "adult": false, "backdrop_path": "\/mabuNsGJgRuCTuGqjFkWe1xdu19.jpg", "original_language": "en", "original_title": "Incredibles 2", "genre_ids": [28, 12, 16, 10751], "title": "Incredibles 2", "vote_average": 7.5, "overview": "Elastigirl springs into action to save the day, while Mr. Incredible faces his greatest challenge yet – taking care of the problems of his three children.", "release_date": "2018-06-14" }] }