{ "page": 1, "total_results": 10000, "total_pages": 500, "results": [{ "popularity": 112.78, "id": 587792, "video": false, "vote_count": 159, "vote_average": 7.8, "title": "Palm Springs", "release_date": "2020-07-10", "original_language": "en", "original_title": "Palm Springs", "genre_ids": [35, 10749, 878], "backdrop_path": "\/d7JUXVvjvVCXWs1mlpyO5ESdWdT.jpg", "adult": false, "overview": "When carefree Nyles and reluctant maid of honor Sarah have a chance encounter at a Palm Springs wedding, things get complicated when they find themselves unable to escape the venue, themselves, or each other.", "poster_path": "\/yf5IuMW6GHghu39kxA0oFx7Bxmj.jpg" }, { "popularity": 94.196, "vote_count": 5018, "video": false, "poster_path": "\/h4VB6m0RwcicVEZvzftYZyKXs6K.jpg", "id": 495764, "adult": false, "backdrop_path": "\/9xNOiv6DZZjH7ABoUUDP0ZynouU.jpg", "original_language": "en", "original_title": "Birds of Prey (and the Fantabulous Emancipation of One Harley Quinn)", "genre_ids": [28, 35, 80, 18], "title": "Birds of Prey (and the Fantabulous Emancipation of One Harley Quinn)", "vote_average": 7.2, "overview": "Harley Quinn joins forces with a singer, an assassin and a police detective to help a young girl who had a hit placed on her after she stole a rare diamond from a crime lord.", "release_date": "2020-02-05" }, { "popularity": 77.391, "vote_count": 1259, "video": false, "poster_path": "\/jHo2M1OiH9Re33jYtUQdfzPeUkx.jpg", "id": 385103, "adult": false, "backdrop_path": "\/fKtYXUhX5fxMxzQfyUcQW9Shik6.jpg", "original_language": "en", "original_title": "Scoob!", "genre_ids": [12, 16, 35, 9648, 10751], "title": "Scoob!", "vote_average": 8, "overview": "In Scooby-Doo’s greatest adventure yet, see the never-before told story of how lifelong friends Scooby and Shaggy first met and how they joined forces with young detectives Fred, Velma, and Daphne to form the famous Mystery Inc. Now, with hundreds of cases solved, Scooby and the gang face their biggest, toughest mystery ever: an evil plot to unleash the ghost dog Cerberus upon the world. As they race to stop this global “dogpocalypse,” the gang discovers that Scooby has a secret legacy and an epic destiny greater than anyone ever imagined.", "release_date": "2020-05-15" }, { "popularity": 93.168, "vote_count": 5093, "video": false, "poster_path": "\/aQvJ5WPzZgYVDrxLX4R6cLJCEaQ.jpg", "id": 454626, "adult": false, "backdrop_path": "\/stmYfCUGd8Iy6kAMBr6AmWqx8Bq.jpg", "original_language": "en", "original_title": "Sonic the Hedgehog", "genre_ids": [28, 35, 878, 10751], "title": "Sonic the Hedgehog", "vote_average": 7.5, "overview": "Based on the global blockbuster videogame franchise from Sega, Sonic the Hedgehog tells the story of the world’s speediest hedgehog as he embraces his new home on Earth. In this live-action adventure comedy, Sonic and his new best friend team up to defend the planet from the evil genius Dr. Robotnik and his plans for world domination.", "release_date": "2020-02-12" }, { "popularity": 61.088, "vote_count": 4, "video": false, "poster_path": "\/2LXQUhkzo27jKotK7poHkNaw59B.jpg", "id": 582218, "adult": false, "backdrop_path": "\/fHkOalncR4nYkUsiEhEN3Y20Nd2.jpg", "original_language": "en", "original_title": "Psych 2: Lassie Come Home", "genre_ids": [28, 35, 80], "title": "Psych 2: Lassie Come Home", "vote_average": 6.3, "overview": "After Santa Barbara Police Chief Carlton Lassiter is ambushed and left for dead, Shawn and Gus return to help him and find themselves embroiled in a case involving the personal, the professional—and even the supernatural.", "release_date": "2020-07-15" }, { "popularity": 73.803, "vote_count": 8393, "video": false, "poster_path": "\/7IiTTgloJzvGI1TAYymCfbfl3vT.jpg", "id": 496243, "adult": false, "backdrop_path": "\/ApiBzeaa95TNYliSbQ8pJv4Fje7.jpg", "original_language": "ko", "original_title": "기생충", "genre_ids": [35, 18, 53], "title": "Parasite", "vote_average": 8.5, "overview": "All unemployed, Ki-taek's family takes peculiar interest in the wealthy and glamorous Parks for their livelihood until they get entangled in an unexpected incident.", "release_date": "2019-05-30" }, { "popularity": 60.184, "id": 508439, "video": false, "vote_count": 2570, "vote_average": 7.9, "title": "Onward", "release_date": "2020-02-29", "original_language": "en", "original_title": "Onward", "genre_ids": [16, 10751, 12, 35, 14], "backdrop_path": "\/xFxk4vnirOtUxpOEWgA1MCRfy6J.jpg", "adult": false, "overview": "In a suburban fantasy world, two teenage elf brothers embark on an extraordinary quest to discover if there is still a little magic left out there.", "poster_path": "\/f4aul3FyD3jv3v4bul1IrkWZvzq.jpg" }, { "popularity": 53.702, "vote_count": 1619, "video": false, "poster_path": "\/jtrhTYB7xSrJxR1vusu99nvnZ1g.jpg", "id": 522627, "adult": false, "backdrop_path": "\/tintsaQ0WLzZsTMkTiqtMB3rfc8.jpg", "original_language": "en", "original_title": "The Gentlemen", "genre_ids": [28, 35, 80], "title": "The Gentlemen", "vote_average": 7.7, "overview": "American expat Mickey Pearson has built a highly profitable marijuana empire in London. When word gets out that he’s looking to cash out of the business forever it triggers plots, schemes, bribery and blackmail in an attempt to steal his domain out from under him.", "release_date": "2020-01-01" }, { "popularity": 40.992, "vote_count": 22, "video": false, "poster_path": "\/nCATbnGxYI271PyDPVjzbpm2sxD.jpg", "id": 608649, "adult": false, "backdrop_path": "\/b71pSSbZ1w6ehjKT1IokpSf4Zck.jpg", "original_language": "it", "original_title": "Gli infedeli", "genre_ids": [35], "title": "The Players", "vote_average": 4, "overview": "From campy lies to sexy surprises, this collection of vignettes captures the follies of several men as they fumble with fidelity and relationships.", "release_date": "2020-07-15" }, { "popularity": 56.301, "vote_count": 4879, "video": false, "poster_path": "\/pThyQovXQrw2m0s9x82twj48Jq4.jpg", "id": 546554, "adult": false, "backdrop_path": "\/AbRYlvwAKHs0YuyNO6NX9ofq4l6.jpg", "original_language": "en", "original_title": "Knives Out", "genre_ids": [35, 80, 18, 9648, 53], "title": "Knives Out", "vote_average": 7.8, "overview": "When renowned crime novelist Harlan Thrombey is found dead at his estate just after his 85th birthday, the inquisitive and debonair Detective Benoit Blanc is mysteriously enlisted to investigate. From Harlan's dysfunctional family to his devoted staff, Blanc sifts through a web of red herrings and self-serving lies to uncover the truth behind Harlan's untimely death.", "release_date": "2019-11-27" }, { "popularity": 47.526, "vote_count": 186, "video": false, "poster_path": "\/hoUzSMxGu4Bm73EvH6B3iceFwW8.jpg", "id": 706510, "adult": false, "backdrop_path": "\/k8H6Qp4uJ9WHArPQwDqCaW9g3Sj.jpg", "original_language": "en", "original_title": "Desperados", "genre_ids": [35, 10749], "title": "Desperados", "vote_average": 6.4, "overview": "A panicked young woman and her two best friends fly to Mexico to delete a ranting email she sent to her new boyfriend. On arrival, they run into her former beau, who soon gets caught up in their frantic scheme.", "release_date": "2020-07-03" }, { "popularity": 47.971, "vote_count": 4232, "video": false, "poster_path": "\/jyw8VKYEiM1UDzPB7NsisUgBeJ8.jpg", "id": 512200, "adult": false, "backdrop_path": "\/zTxHf9iIOCqRbxvl8W5QYKrsMLq.jpg", "original_language": "en", "original_title": "Jumanji: The Next Level", "genre_ids": [12, 35, 14], "title": "Jumanji: The Next Level", "vote_average": 6.9, "overview": "As the gang return to Jumanji to rescue one of their own, they discover that nothing is as they expect. The players will have to brave parts unknown and unexplored in order to escape the world’s most dangerous game.", "release_date": "2019-12-04" }, { "popularity": 40.851, "vote_count": 1427, "video": false, "poster_path": "\/30YacPAcxpNemhhwX0PVUl9pVA3.jpg", "id": 431693, "adult": false, "backdrop_path": "\/lwSOhnpwrzjtKi2RD3e5RAcGzvt.jpg", "original_language": "en", "original_title": "Spies in Disguise", "genre_ids": [28, 12, 16, 35], "title": "Spies in Disguise", "vote_average": 7.7, "overview": "Super spy Lance Sterling and scientist Walter Beckett are almost exact opposites. Lance is smooth, suave and debonair. Walter is… not. But what Walter lacks in social skills he makes up for in smarts and invention, creating the awesome gadgets Lance uses on his epic missions. But when events take an unexpected turn, Walter and Lance suddenly have to rely on each other in a whole new way.", "release_date": "2019-12-04" }, { "popularity": 41.352, "id": 528888, "video": false, "vote_count": 639, "vote_average": 7.1, "title": "Dolemite Is My Name", "release_date": "2019-10-04", "original_language": "en", "original_title": "Dolemite Is My Name", "genre_ids": [18, 35, 36], "backdrop_path": "\/cTuS5DJWhu1UoZVNJaUjgMNW5h7.jpg", "adult": false, "overview": "The story of Rudy Ray Moore, who created the iconic big screen pimp character Dolemite in the 1970s.", "poster_path": "\/uoAqJg7ZSmftnBGOkupU1ySZQU0.jpg" }, { "popularity": 43.706, "id": 150540, "video": false, "vote_count": 15156, "vote_average": 7.9, "title": "Inside Out", "release_date": "2015-06-09", "original_language": "en", "original_title": "Inside Out", "genre_ids": [18, 35, 16, 10751], "backdrop_path": "\/9cGSFGZVVLsrnbs0AFPDh6X2ynl.jpg", "adult": false, "overview": "Growing up can be a bumpy road, and it's no exception for Riley, who is uprooted from her Midwest life when her father starts a new job in San Francisco. Riley's guiding emotions— Joy, Fear, Anger, Disgust and Sadness—live in Headquarters, the control centre inside Riley's mind, where they help advise her through everyday life and tries to keep things positive, but the emotions conflict on how best to navigate a new city, house and school.", "poster_path": "\/lRHE0vzf3oYJrhbsHXjIkF4Tl5A.jpg" }, { "popularity": 40.369, "vote_count": 3897, "video": false, "poster_path": "\/qRyy2UmjC5ur9bDi3kpNNRCc5nc.jpg", "id": 384018, "adult": false, "backdrop_path": "\/qAhedRxRYWZAgZ8O8pHIl6QHdD7.jpg", "original_language": "en", "original_title": "Fast & Furious Presents: Hobbs & Shaw", "genre_ids": [28, 12, 35], "title": "Fast & Furious Presents: Hobbs & Shaw", "vote_average": 6.9, "overview": "Ever since US Diplomatic Security Service Agent Hobbs and lawless outcast Shaw first faced off, they just have swapped smacks and bad words. But when cyber-genetically enhanced anarchist Brixton's ruthless actions threaten the future of humanity, both join forces to defeat him. (A spin-off of “The Fate of the Furious,” focusing on Johnson's Luke Hobbs and Statham's Deckard Shaw.)", "release_date": "2019-08-01" }, { "popularity": 44.314, "vote_count": 14229, "video": false, "poster_path": "\/rzRwTcFvttcN1ZpX2xv4j3tSdJu.jpg", "id": 284053, "adult": false, "backdrop_path": "\/kaIfm5ryEOwYg8mLbq8HkPuM1Fo.jpg", "original_language": "en", "original_title": "Thor: Ragnarok", "genre_ids": [28, 12, 35, 14], "title": "Thor: Ragnarok", "vote_average": 7.6, "overview": "Thor is imprisoned on the other side of the universe and finds himself in a race against time to get back to Asgard to stop Ragnarok, the destruction of his home-world and the end of Asgardian civilization, at the hands of an all-powerful new threat, the ruthless Hela.", "release_date": "2017-10-25" }, { "popularity": 45.501, "vote_count": 931, "video": false, "poster_path": "\/7W0G3YECgDAfnuiHG91r8WqgIOe.jpg", "id": 446893, "adult": false, "backdrop_path": "\/qsxhnirlp7y4Ae9bd11oYJSX59j.jpg", "original_language": "en", "original_title": "Trolls World Tour", "genre_ids": [12, 16, 35, 14, 10402, 10751], "title": "Trolls World Tour", "vote_average": 7.7, "overview": "Queen Poppy and Branch make a surprising discovery — there are other Troll worlds beyond their own, and their distinct differences create big clashes between these various tribes. When a mysterious threat puts all of the Trolls across the land in danger, Poppy, Branch, and their band of friends must embark on an epic quest to create harmony among the feuding Trolls to unite them against certain doom.", "release_date": "2020-03-12" }, { "popularity": 58.477, "vote_count": 3, "video": false, "poster_path": "\/27eA9xGba61LtKr7gJRnhtDDgEP.jpg", "id": 651586, "adult": false, "backdrop_path": null, "original_language": "es", "original_title": "Superagente Makey", "genre_ids": [28, 35], "title": "Superagente Makey", "vote_average": 3.3, "overview": "Makey is a humble police officer that, unexpectedly, gets caught in the middle of a dangerous international drug operation in the Costa del Sol, Spain.", "release_date": "2020-07-17" }, { "popularity": 36.298, "vote_count": 4988, "video": false, "poster_path": "\/azL2ThbJMIkts3ZMt3j1YgBUeDB.jpg", "id": 98566, "adult": false, "backdrop_path": "\/3eGlcdyxqEN57TtU8ypx52V4JMs.jpg", "original_language": "en", "original_title": "Teenage Mutant Ninja Turtles", "genre_ids": [28, 12, 35, 14, 878], "title": "Teenage Mutant Ninja Turtles", "vote_average": 5.9, "overview": "The city needs heroes. Darkness has settled over New York City as Shredder and his evil Foot Clan have an iron grip on everything from the police to the politicians. The future is grim until four unlikely outcast brothers rise from the sewers and discover their destiny as Teenage Mutant Ninja Turtles. The Turtles must work with fearless reporter April and her wise-cracking cameraman Vern Fenwick to save the city and unravel Shredder's diabolical plan.", "release_date": "2014-08-07" }] }