{ "page": 1, "total_results": 10000, "total_pages": 500, "results": [{ "popularity": 115.471, "vote_count": 4413, "video": false, "poster_path": "\/m5h3NtZ2ZfryIHl1MvatmANvIqQ.jpg", "id": 49017, "adult": false, "backdrop_path": "\/f02FFv77Rh62633YEjimv7C6JM3.jpg", "original_language": "en", "original_title": "Dracula Untold", "genre_ids": [28, 18, 14, 27, 10752], "title": "Dracula Untold", "vote_average": 6.3, "overview": "Vlad Tepes is a great hero, but when he learns the Sultan is preparing for battle and needs to form an army of 1,000 boys, he vows to find a way to protect his family. Vlad turns to dark forces in order to get the power to destroy his enemies and agrees to go from hero to monster as he's turned into the mythological vampire, Dracula.", "release_date": "2014-10-01" }, { "popularity": 85.821, "vote_count": 52, "video": false, "poster_path": "\/3wZ0gxLqsPleneFSTZILmM3BE8Q.jpg", "id": 539181, "adult": false, "backdrop_path": "\/vpUUznNzW85xo02H16RaSxRNS1.jpg", "original_language": "en", "original_title": "Relic", "genre_ids": [18, 27], "title": "Relic", "vote_average": 6.3, "overview": "When Edna, the elderly and widowed matriarch of the family, goes missing, her daughter Kay and granddaughter Sam travel to their remote family home to find her. Soon after her return, they start to discover a sinister presence haunting the house and taking control of Edna.", "release_date": "2020-07-03" }, { "popularity": 43.018, "vote_count": 5, "video": false, "poster_path": "\/7S9RvfMBWSTlUZ4VbxDY7oLeenk.jpg", "id": 581392, "adult": false, "backdrop_path": "\/oamFZb8Gj5NJ24OLDd07wyNVX4N.jpg", "original_language": "ko", "original_title": "반도", "genre_ids": [28, 27, 53], "title": "Train to Busan Presents: Peninsula", "vote_average": 6.4, "overview": "Peninsula takes place four years after Train to Busan as the characters fight to escape the land that is in ruins due to an unprecedented disaster.", "release_date": "2020-07-15" }, { "popularity": 66.049, "vote_count": 2431, "video": false, "poster_path": "\/5EufsDwXdY2CVttYOk2WtYhgKpa.jpg", "id": 570670, "adult": false, "backdrop_path": "\/uZMZyvarQuXLRqf3xdpdMqzdtjb.jpg", "original_language": "en", "original_title": "The Invisible Man", "genre_ids": [27, 878, 53], "title": "The Invisible Man", "vote_average": 7.2, "overview": "When Cecilia's abusive ex takes his own life and leaves her his fortune, she suspects his death was a hoax. As a series of coincidences turn lethal, Cecilia works to prove that she is being hunted by someone nobody can see.", "release_date": "2020-02-26" }, { "popularity": 50.05, "vote_count": 2, "video": false, "poster_path": "\/ellZ2dQLPVeWgd2fjf4arcZwALc.jpg", "id": 542713, "adult": false, "backdrop_path": "\/mTbdEMXacCjSef38fvx3nbZGB83.jpg", "original_language": "en", "original_title": "Starfish", "genre_ids": [18, 27, 878], "title": "Starfish", "vote_average": 5, "overview": "A unique, intimate and honest portrayal of a girl grieving for the loss of her best friend. That just happens to take place on the day the world ends as we know it.", "release_date": "2020-07-17" }, { "popularity": 43.188, "vote_count": 1089, "video": false, "poster_path": "\/wxPhn4ef1EAo5njxwBkAEVrlJJG.jpg", "id": 514847, "adult": false, "backdrop_path": "\/naXUDz0VGK7aaPlEpsuYW8kNVsr.jpg", "original_language": "en", "original_title": "The Hunt", "genre_ids": [28, 27, 53], "title": "The Hunt", "vote_average": 6.6, "overview": "Twelve strangers wake up in a clearing. They don't know where they are—or how they got there. In the shadow of a dark internet conspiracy theory, ruthless elitists gather at a remote location to hunt humans for sport. But their master plan is about to be derailed when one of the hunted turns the tables on her pursuers.", "release_date": "2020-03-11" }, { "popularity": 38.73, "vote_count": 1918, "video": false, "poster_path": "\/p69QzIBbN06aTYqRRiCOY1emNBh.jpg", "id": 501170, "adult": false, "backdrop_path": "\/sZAXOoOMyCbBskmqR0f4LShxXtw.jpg", "original_language": "en", "original_title": "Doctor Sleep", "genre_ids": [18, 14, 27, 53], "title": "Doctor Sleep", "vote_average": 7.1, "overview": "Still irrevocably scarred by the trauma he endured as a child at the Overlook, Dan Torrance has fought to find some semblance of peace. But that peace is shattered when he encounters Abra, a courageous teenager with her own powerful extrasensory gift, known as the 'shine'. Instinctively recognising that Dan shares her power, Abra has sought him out, desperate for his help against the merciless Rose the Hat and her followers.", "release_date": "2019-10-30" }, { "popularity": 44.022, "vote_count": 1410, "video": false, "poster_path": "\/gzlbb3yeVISpQ3REd3Ga1scWGTU.jpg", "id": 443791, "adult": false, "backdrop_path": "\/ww7eC3BqSbFsyE5H5qMde8WkxJ2.jpg", "original_language": "en", "original_title": "Underwater", "genre_ids": [28, 27, 878, 53], "title": "Underwater", "vote_average": 6.3, "overview": "After an earthquake destroys their underwater station, six researchers must navigate two miles along the dangerous, unknown depths of the ocean floor to make it to safety in a race against time.", "release_date": "2020-01-08" }, { "popularity": 38.757, "vote_count": 4412, "video": false, "poster_path": "\/zfE0R94v1E8cuKAerbskfD3VfUt.jpg", "id": 474350, "adult": false, "backdrop_path": "\/8moTOzunF7p40oR5XhlDvJckOSW.jpg", "original_language": "en", "original_title": "It Chapter Two", "genre_ids": [14, 27], "title": "It Chapter Two", "vote_average": 6.8, "overview": "27 years after overcoming the malevolent supernatural entity Pennywise, the former members of the Losers' Club, who have grown up and moved away from Derry, are brought back together by a devastating phone call.", "release_date": "2019-09-04" }, { "popularity": 31.146, "vote_count": 11297, "video": false, "poster_path": "\/b6ko0IKC8MdYBBPkkA1aBPLe2yz.jpg", "id": 694, "adult": false, "backdrop_path": "\/mmd1HnuvAzFc4iuVJcnBrhDNEKr.jpg", "original_language": "en", "original_title": "The Shining", "genre_ids": [27, 53], "title": "The Shining", "vote_average": 8.2, "overview": "Jack Torrance accepts a caretaker job at the Overlook Hotel, where he, along with his wife Wendy and their son Danny, must live isolated from the rest of the world for the winter. But they aren't prepared for the madness that lurks within.", "release_date": "1980-05-23" }, { "popularity": 28.34, "vote_count": 332, "video": false, "poster_path": "\/vkwgzCBBiY3C1XEy0WakYfMOvnG.jpg", "id": 548473, "adult": false, "backdrop_path": "\/iyn2JQsftaqhQlXYaCCvn8udM5i.jpg", "original_language": "en", "original_title": "Color Out of Space", "genre_ids": [27, 878], "title": "Color Out of Space", "vote_average": 6.1, "overview": "The Gardner family moves to a remote farmstead in rural New England to escape the hustle of the 21st century. They are busy adapting to their new life when a meteorite crashes into their front yard, melts into the earth, and infects both the land and the properties of space-time with a strange, otherworldly colour. To their horror, the family discovers this alien force is gradually mutating every life form that it touches—including them.", "release_date": "2020-01-24" }, { "popularity": 29.458, "vote_count": 1514, "video": false, "poster_path": "\/88wlJ4teYlck4hJ2bnlxBrAVh0m.jpg", "id": 13207, "adult": false, "backdrop_path": "\/1wifwQ25N27DCIBRqvG3lKkZua3.jpg", "original_language": "en", "original_title": "Friday the 13th", "genre_ids": [27], "title": "Friday the 13th", "vote_average": 5.8, "overview": "Ignoring the warnings of the locals, a group of teenage camp counselors takes on the job of reopening Camp Crystal Lake — on Friday the 13th no less, and raise the ire of Jason Voorhees, a masked, homicidal maniac.", "release_date": "2009-02-11" }, { "popularity": 28.911, "vote_count": 1, "video": false, "poster_path": "\/crogGjGpHutUrdeVVeuTwWumlIh.jpg", "id": 722005, "adult": false, "backdrop_path": null, "original_language": "en", "original_title": "Bad Ben 8: Pandemic", "genre_ids": [35, 27], "title": "Bad Ben 8: Pandemic", "vote_average": 2, "overview": "Covid-19 can't stop Tom Riley, paranormal investigator, from offering his professional services.", "release_date": "2020-07-17" }, { "popularity": 36.228, "vote_count": 5837, "video": false, "poster_path": "\/zecMELPbU5YMQpC81Z8ImaaXuf9.jpg", "id": 126889, "adult": false, "backdrop_path": "\/6jajFcaY2YsfGQstJ5HaqZNVseX.jpg", "original_language": "en", "original_title": "Alien: Covenant", "genre_ids": [27, 878], "title": "Alien: Covenant", "vote_average": 5.9, "overview": "Bound for a remote planet on the far side of the galaxy, the crew of the colony ship 'Covenant' discovers what is thought to be an uncharted paradise, but is actually a dark, dangerous world—which has a sole inhabitant: the 'synthetic', David, survivor of the doomed Prometheus expedition.", "release_date": "2017-05-09" }, { "popularity": 26.576, "vote_count": 1, "video": false, "poster_path": "\/gQIGsTob5LE8CrQasdJhIMaksRF.jpg", "id": 606625, "adult": false, "backdrop_path": "\/a6t5W53cnMkGZVWrepcdzvrOqZr.jpg", "original_language": "en", "original_title": "Follow Me", "genre_ids": [27], "title": "Follow Me", "vote_average": 1, "overview": "A social media personality travels with his friends to Moscow to capture new content for his successful VLOG. Always pushing the limits and catering to a growing audience, they enter a cold world of mystery, excess, and danger. When the lines between real life and social media are blurred, the group must fight to escape, and survive.", "release_date": "2020-07-16" }, { "popularity": 35.78, "vote_count": 9277, "video": false, "poster_path": "\/vfrQk5IPloGg1v9Rzbh2Eg3VGyM.jpg", "id": 348, "adult": false, "backdrop_path": "\/AmR3JG1VQVxU8TfAvljUhfSFUOx.jpg", "original_language": "en", "original_title": "Alien", "genre_ids": [27, 878], "title": "Alien", "vote_average": 8.1, "overview": "During its return to the earth, commercial spaceship Nostromo intercepts a distress signal from a distant planet. When a three-member team of the crew discovers a chamber containing thousands of eggs on the planet, a creature inside one of the eggs attacks an explorer. The entire crew is unaware of the impending nightmare set to descend upon them when the alien parasite planted inside its unfortunate host is birthed.", "release_date": "1979-05-25" }, { "popularity": 33.414, "id": 270303, "video": false, "vote_count": 4234, "vote_average": 6.5, "title": "It Follows", "release_date": "2015-02-04", "original_language": "en", "original_title": "It Follows", "genre_ids": [27], "backdrop_path": "\/keEWjA5ykLJo851tIBFdmkxPxxh.jpg", "adult": false, "overview": "After carefree teenager Jay  sleeps with her new boyfriend, Hugh, for the first time, she learns that she is the latest recipient of a fatal curse that is passed from victim to victim via sexual intercourse. Death, Jay learns, will creep inexorably toward her as either a friend or a stranger. Jay's friends don't believe her seemingly paranoid ravings, until they too begin to see the phantom assassins and band together to help her flee or defend herself.", "poster_path": "\/kdxZZ04HFh98ZZBiTZNWHMexsGZ.jpg" }, { "popularity": 30.399, "vote_count": 2592, "video": false, "poster_path": "\/7LEI8ulZzO5gy9Ww2NVCrKmHeDZ.jpg", "id": 530385, "adult": false, "backdrop_path": "\/g6GtOfXtzDpY73ef7wludoorTti.jpg", "original_language": "en", "original_title": "Midsommar", "genre_ids": [18, 27, 9648], "title": "Midsommar", "vote_average": 7.1, "overview": "Several friends travel to Sweden to study as anthropologists a summer festival that is held every ninety years in the remote hometown of one of them. What begins as a dream vacation in a place where the sun never sets, gradually turns into a dark nightmare as the mysterious inhabitants invite them to participate in their disturbing festive activities.", "release_date": "2019-07-03" }, { "popularity": 28.111, "vote_count": 11311, "video": false, "poster_path": "\/qbaIViX3tgWSTSFXbldq0ODMdi4.jpg", "id": 419430, "adult": false, "backdrop_path": "\/vZ7EVk7FaNEWYqlVWbFLHP8Z0LU.jpg", "original_language": "en", "original_title": "Get Out", "genre_ids": [27, 9648, 53], "title": "Get Out", "vote_average": 7.6, "overview": "Chris and his girlfriend Rose go upstate to visit her parents for the weekend. At first, Chris reads the family's overly accommodating behavior as nervous attempts to deal with their daughter's interracial relationship, but as the weekend progresses, a series of increasingly disturbing discoveries lead him to a truth that he never could have imagined.", "release_date": "2017-02-24" }, { "popularity": 27.996, "vote_count": 1670, "video": false, "poster_path": "\/vJmRlV9i3Q40m4Zug5qASRwJZ0Y.jpg", "id": 3597, "adult": false, "backdrop_path": "\/61OxaLgaB5WiwkRQlIPenBJpa9r.jpg", "original_language": "en", "original_title": "I Know What You Did Last Summer", "genre_ids": [27, 9648, 53], "title": "I Know What You Did Last Summer", "vote_average": 5.9, "overview": "As they celebrate their high school graduation, four friends are involved in a hit-and-run accident when their car hits and apparently kills a pedestrian on an isolated roadway. They dispose of the body and vow to keep the incident a secret, a year later somebody starts sending them letters bearing the warning \"I Know What You Did Last Summer\".", "release_date": "1997-10-17" }] }