{ "page": 1, "total_results": 848, "total_pages": 43, "results": [{ "original_name": "Dark", "genre_ids": [80, 18, 9648, 10765], "name": "Dark", "popularity": 92.519, "origin_country": ["DE"], "vote_count": 2664, "first_air_date": "2017-12-01", "backdrop_path": "\/3lBDg3i6nn5R2NKFCJ6oKyUo2j5.jpg", "original_language": "de", "id": 70523, "vote_average": 8.5, "overview": "A missing child causes four families to help each other for answers. What they could not imagine is that this mystery would be connected to innumerable other secrets of the small town.", "poster_path": "\/apbrbWs8M9lyOpJYU5WXrpFbk1Z.jpg" }, { "original_name": "Lucifer", "genre_ids": [80, 10765], "name": "Lucifer", "popularity": 81.953, "origin_country": ["US"], "vote_count": 2897, "first_air_date": "2016-01-25", "backdrop_path": "\/vauFEN12Exuck3nO9WWmjB1R5cJ.jpg", "original_language": "en", "id": 63174, "vote_average": 8.3, "overview": "Bored and unhappy as the Lord of Hell, Lucifer Morningstar abandoned his throne and retired to Los Angeles, where he has teamed up with LAPD detective Chloe Decker to take down criminals. But the longer he's away from the underworld, the greater the threat that the worst of humanity could escape.", "poster_path": "\/1sBx2Ew4WFsa1YY32vlHt079O03.jpg" }, { "original_name": "Oscuro Deseo", "genre_ids": [18, 9648], "name": "Dark Desire", "popularity": 75.699, "origin_country": ["MX"], "vote_count": 114, "first_air_date": "2020-07-16", "backdrop_path": "\/vmVeGFUTXEKwAUpFH9bZwow9zIk.jpg", "original_language": "es", "id": 105214, "vote_average": 7.7, "overview": "Married Alma spends a fateful weekend away from home that ignites passion, ends in tragedy and leads her to question the truth about those close to her.", "poster_path": "\/uxFNAo2A6ZRcgNASLk02hJUbybn.jpg" }, { "original_name": "Cursed", "genre_ids": [10759, 10765], "name": "Cursed", "popularity": 69.16, "origin_country": ["GB"], "vote_count": 33, "first_air_date": "2020-07-15", "backdrop_path": "\/uzUPwWSAheYKdavFCcod9M6y2rf.jpg", "original_language": "en", "id": 83125, "vote_average": 8, "overview": "In this fresh take on the Arthurian legend, teenager Nimue joins forces with mercenary Arthur on a quest to find Merlin and deliver an ancient sword.", "poster_path": "\/wrLC5kx0nEq9U0MyJD7dnOT6m5F.jpg" }, { "original_name": "Stranger Things", "genre_ids": [18, 9648, 10765], "name": "Stranger Things", "popularity": 61.175, "origin_country": ["US"], "vote_count": 4760, "first_air_date": "2016-07-15", "backdrop_path": "\/56v2KjBlU4XaOv9rVYEQypROD7P.jpg", "original_language": "en", "id": 66732, "vote_average": 8.5, "overview": "When a young boy vanishes, a small town uncovers a mystery involving secret experiments, terrifying supernatural forces, and one strange little girl.", "poster_path": "\/x2LSRK2Cm7MZhjluni1msVJ3wDF.jpg" }, { "original_name": "Star Wars: The Clone Wars", "genre_ids": [16, 10759, 10765], "name": "Star Wars: The Clone Wars", "popularity": 61.74, "origin_country": ["US"], "vote_count": 610, "first_air_date": "2008-10-03", "backdrop_path": "\/m6eRgkR1KC6Mr6gKx6gKCzSn6vD.jpg", "original_language": "en", "id": 4194, "vote_average": 8.2, "overview": "Yoda, Obi-Wan Kenobi, Anakin Skywalker, Mace Windu and other Jedi Knights lead the Grand Army of the Republic against the droid army of the Separatists.", "poster_path": "\/e1nWfnnCVqxS2LeTO3dwGyAsG2V.jpg" }, { "original_name": "Warrior Nun", "genre_ids": [18, 10759, 10765], "name": "Warrior Nun", "popularity": 50.642, "origin_country": ["US"], "vote_count": 217, "first_air_date": "2020-07-02", "backdrop_path": "\/u2R4WKNvEQAfgiEl6kAOvj6AuFv.jpg", "original_language": "en", "id": 87689, "vote_average": 8.1, "overview": "After waking up in a morgue, an orphaned teen discovers she now possesses superpowers as the chosen Halo-Bearer for a secret sect of demon-hunting nuns.", "poster_path": "\/77OM9jMJ8nglaolHLwrAW7kvadV.jpg" }, { "original_name": "La casa de papel", "genre_ids": [80, 18], "name": "Money Heist", "popularity": 40.631, "origin_country": ["ES"], "vote_count": 7636, "first_air_date": "2017-05-02", "backdrop_path": "\/xGexTKCJDkl12dTW4YCBDXWb1AD.jpg", "original_language": "es", "id": 71446, "vote_average": 8.4, "overview": "To carry out the biggest heist in history, a mysterious man called The Professor recruits a band of eight robbers who have a single characteristic: none of them has anything to lose. Five months of seclusion - memorizing every step, every detail, every probability - culminate in eleven days locked up in the National Coinage and Stamp Factory of Spain, surrounded by police forces and with dozens of hostages in their power, to find out whether their suicide wager will lead to everything or nothing.", "poster_path": "\/MoEKaPFHABtA1xKoOteirGaHl1.jpg" }, { "original_name": "13 Reasons Why", "genre_ids": [18, 9648], "name": "13 Reasons Why", "popularity": 38.166, "origin_country": ["US"], "vote_count": 1844, "first_air_date": "2017-03-31", "backdrop_path": "\/sZb21d6EWKAEKZ9GrLQeMwX4cWN.jpg", "original_language": "en", "id": 66788, "vote_average": 7.7, "overview": "After a teenage girl's perplexing suicide, a classmate receives a series of tapes that unravel the mystery of her tragic choice.", "poster_path": "\/nel144y4dIOdFFid6twN5mAX9Yd.jpg" }, { "original_name": "DreamWorks Dragons", "genre_ids": [16, 35, 10759, 10765], "name": "DreamWorks Dragons", "popularity": 30.934, "origin_country": ["US"], "vote_count": 160, "first_air_date": "2012-08-07", "backdrop_path": "\/l8MgpYzOl8ejMn1lKCKO73bMrGY.jpg", "original_language": "en", "id": 44305, "vote_average": 7.4, "overview": "From the creators of \"How to Train Your Dragon\" comes a new series that takes Hiccup and Toothless to the edge of adventure.", "poster_path": "\/fDzGH0jGhJMMxbgsb9JiC7Ep4uk.jpg" }, { "original_name": "House of Cards", "genre_ids": [18], "name": "House of Cards", "popularity": 37.13, "origin_country": ["US"], "vote_count": 1454, "first_air_date": "2013-02-01", "backdrop_path": "\/ex4kvQb0Ski5KL2fsnKQU2hV3oo.jpg", "original_language": "en", "id": 1425, "vote_average": 8.1, "overview": "Set in present day Washington, D.C., House of Cards is the story of Frank Underwood, a ruthless and cunning politician, and his wife Claire who will stop at nothing to conquer everything. This wicked political drama penetrates the shadowy world of greed, sex and corruption in modern D.C.", "poster_path": "\/hKWxWjFwnMvkWQawbhvC0Y7ygQ8.jpg" }, { "original_name": "Marvel's Daredevil", "genre_ids": [28, 80], "name": "Marvel's Daredevil", "popularity": 32.264, "origin_country": ["US"], "vote_count": 1874, "first_air_date": "2015-04-10", "backdrop_path": "\/qsnXwGS7KBbX4JLqHvICngtR8qg.jpg", "original_language": "en", "id": 61889, "vote_average": 7.9, "overview": "Lawyer-by-day Matt Murdock uses his heightened senses from being blinded as a young boy to fight crime at night on the streets of Hell’s Kitchen as Daredevil.", "poster_path": "\/QWbPaDxiB6LW2LjASknzYBvjMj.jpg" }, { "original_name": "The Business of Drugs", "genre_ids": [80, 99], "name": "The Business of Drugs", "popularity": 35.137, "origin_country": ["US"], "vote_count": 8, "first_air_date": "2020-07-14", "backdrop_path": "\/54f4FsZ4248sCrvzQnw6XXTFWWY.jpg", "original_language": "en", "id": 105305, "vote_average": 7.1, "overview": "To detail how drugs push people into risky — even deadly — behaviors, a former CIA analyst investigates the economics of six illicit substances.", "poster_path": "\/blyObONhcnleib1xqcwS9uvAfIM.jpg" }, { "original_name": "Marvel's Jessica Jones", "genre_ids": [18, 10765], "name": "Marvel's Jessica Jones", "popularity": 31.582, "origin_country": ["US"], "vote_count": 1151, "first_air_date": "2015-11-20", "backdrop_path": "\/57JFnZqpG5OLgHdZY7Zf9dKcZ5U.jpg", "original_language": "en", "id": 38472, "vote_average": 7.6, "overview": "After a tragic ending to her short-lived super hero stint, Jessica Jones is rebuilding her personal life and career as a detective who gets pulled into cases involving people with extraordinary abilities in New York City.", "poster_path": "\/wkFdanlAaV39sSXeslImfRUj3jQ.jpg" }, { "original_name": "Down to Earth with Zac Efron", "genre_ids": [99], "name": "Down to Earth with Zac Efron", "popularity": 27.462, "origin_country": ["US"], "vote_count": 70, "first_air_date": "2020-07-10", "backdrop_path": "\/prs7zCDXmcoN0iDxac91LGO1QKZ.jpg", "original_language": "en", "id": 105288, "vote_average": 7.6, "overview": "Actor Zac Efron journeys around the world with wellness expert Darin Olien in a travel show that explores healthy, sustainable ways to live.", "poster_path": "\/udvHACK9baA5DLzcymV66Z6G9QN.jpg" }, { "original_name": "Élite", "genre_ids": [80, 18, 9648], "name": "Elite", "popularity": 34.857, "origin_country": [], "vote_count": 3909, "first_air_date": "2018-10-05", "backdrop_path": "\/1qOA3kMtQO8bjnW8M2smjA8tp10.jpg", "original_language": "es", "id": 76669, "vote_average": 8.4, "overview": "When three working class kids enroll in the most exclusive school in Spain, the clash between the wealthy and the poor students leads to tragedy.", "poster_path": "\/3NTAbAiao4JLzFQw6YxP1YZppM8.jpg" }, { "original_name": "Las chicas del cable", "genre_ids": [18], "name": "Cable Girls", "popularity": 35.304, "origin_country": ["ES"], "vote_count": 185, "first_air_date": "2017-04-28", "backdrop_path": "\/iHLexEHCET03oGwe22gbHw0BfLL.jpg", "original_language": "es", "id": 71225, "vote_average": 7.8, "overview": "In 1920s Madrid, four women at the National Telephone Company ring in revolution as they deal with romance, envy and the modern workplace.", "poster_path": "\/lAwLmgq1zy0xJnusszmvWTLjFlO.jpg" }, { "original_name": "The Umbrella Academy", "genre_ids": [35, 18, 10759, 10765], "name": "The Umbrella Academy", "popularity": 27.645, "origin_country": ["US"], "vote_count": 410, "first_air_date": "2019-02-15", "backdrop_path": "\/mE3zzMkpP8yqlkzdjPsQmJHceoe.jpg", "original_language": "en", "id": 75006, "vote_average": 7.7, "overview": "A dysfunctional family of superheroes comes together to solve the mystery of their father's death, the threat of the apocalypse and more.", "poster_path": "\/scZlQQYnDVlnpxFTxaIv2g0BWnL.jpg" }, { "original_name": "Black Mirror", "genre_ids": [18, 10765], "name": "Black Mirror", "popularity": 37.496, "origin_country": ["GB"], "vote_count": 1954, "first_air_date": "2011-12-04", "backdrop_path": "\/p39K75uoZLwnhGlEAJxRG5xAD9y.jpg", "original_language": "en", "id": 42009, "vote_average": 8.3, "overview": "A contemporary British re-working of The Twilight Zone with stories that tap into the collective unease about our modern world. \n\nOver the last ten years, technology has transformed almost every aspect of our lives before we've had time to stop and question it. In every home; on every desk; in every palm - a plasma screen; a monitor; a smartphone - a black mirror of our 21st Century existence.", "poster_path": "\/pXeuSWSKgWUnhRFHZ4TjAUU8lbE.jpg" }, { "original_name": "Anne with an E", "genre_ids": [18, 10751], "name": "Anne with an E", "popularity": 40.699, "origin_country": ["CA"], "vote_count": 914, "first_air_date": "2017-03-19", "backdrop_path": "\/ywQtHG17LZhAFZyZtBflhtFMtJ7.jpg", "original_language": "en", "id": 70785, "vote_average": 8.8, "overview": "A coming-of-age story about an outsider who, against all odds and numerous challenges, fights for love and acceptance and for her place in the world. The series centers on a young orphaned girl in the late 1890’s, who, after an abusive childhood spent in orphanages and the homes of strangers, is mistakenly sent to live with an elderly woman and her aging brother. Over time, 13-year-old Anne will transform their lives and eventually the small town in which they live with her unique spirit, fierce intellect and brilliant imagination.", "poster_path": "\/6P6tXhjT5tK3qOXzxF9OMLlG7iz.jpg" }] }