{ "page": 1, "total_results": 10000, "total_pages": 500, "results": [{ "popularity": 103.782, "vote_count": 13767, "video": false, "poster_path": "\/udDclJoHjfjb8Ekgsd4FDteOkCU.jpg", "id": 475557, "adult": false, "backdrop_path": "\/n6bUvigpRFqSwmPp1m2YADdbRBc.jpg", "original_language": "en", "original_title": "Joker", "genre_ids": [80, 18, 53], "title": "Joker", "vote_average": 8.2, "overview": "During the 1980s, a failed stand-up comedian is driven insane and turns to a life of crime and chaos in Gotham City while becoming an infamous psychopathic crime figure.", "release_date": "2019-10-02" }, { "popularity": 73.803, "vote_count": 8393, "video": false, "poster_path": "\/7IiTTgloJzvGI1TAYymCfbfl3vT.jpg", "id": 496243, "adult": false, "backdrop_path": "\/ApiBzeaa95TNYliSbQ8pJv4Fje7.jpg", "original_language": "ko", "original_title": "기생충", "genre_ids": [35, 18, 53], "title": "Parasite", "vote_average": 8.5, "overview": "All unemployed, Ki-taek's family takes peculiar interest in the wealthy and glamorous Parks for their livelihood until they get entangled in an unexpected incident.", "release_date": "2019-05-30" }, { "popularity": 63.192, "vote_count": 2668, "video": false, "poster_path": "\/50kALxDX4mmzIRljbNbPY0u4cie.jpg", "id": 189, "adult": false, "backdrop_path": "\/f4KiaxSD5B8bcg5VLsvrDhaZlFu.jpg", "original_language": "en", "original_title": "Sin City: A Dame to Kill For", "genre_ids": [28, 80, 53], "title": "Sin City: A Dame to Kill For", "vote_average": 6.3, "overview": "Some of Sin City's most hard-boiled citizens cross paths with a few of its more reviled inhabitants.", "release_date": "2014-08-20" }, { "popularity": 43.018, "vote_count": 5, "video": false, "poster_path": "\/7S9RvfMBWSTlUZ4VbxDY7oLeenk.jpg", "id": 581392, "adult": false, "backdrop_path": "\/oamFZb8Gj5NJ24OLDd07wyNVX4N.jpg", "original_language": "ko", "original_title": "반도", "genre_ids": [28, 27, 53], "title": "Train to Busan Presents: Peninsula", "vote_average": 6.4, "overview": "Peninsula takes place four years after Train to Busan as the characters fight to escape the land that is in ruins due to an unprecedented disaster.", "release_date": "2020-07-15" }, { "popularity": 55.839, "vote_count": 4671, "video": false, "poster_path": "\/y95lQLnuNKdPAzw9F9Ab8kJ80c3.jpg", "id": 38700, "adult": false, "backdrop_path": "\/upUy2QhMZEmtypPW3PdieKLAHxh.jpg", "original_language": "en", "original_title": "Bad Boys for Life", "genre_ids": [28, 80, 53], "title": "Bad Boys for Life", "vote_average": 7.2, "overview": "Marcus and Mike are forced to confront new threats, career changes, and midlife crises as they join the newly created elite team AMMO of the Miami police department to take down the ruthless Armando Armas, the vicious leader of a Miami drug cartel.", "release_date": "2020-01-15" }, { "popularity": 59.739, "vote_count": 2682, "video": false, "poster_path": "\/wlfDxbGEsW58vGhFljKkcR5IxDj.jpg", "id": 545609, "adult": false, "backdrop_path": "\/1R6cvRtZgsYCkh8UFuWFN33xBP4.jpg", "original_language": "en", "original_title": "Extraction", "genre_ids": [28, 18, 53], "title": "Extraction", "vote_average": 7.4, "overview": "Tyler Rake, a fearless mercenary who offers his services on the black market, embarks on a dangerous mission when he is hired to rescue the kidnapped son of a Mumbai crime lord…", "release_date": "2020-04-24" }, { "popularity": 58.474, "vote_count": 13409, "video": false, "poster_path": "\/6yoghtyTpznpBik8EngEmJskVUO.jpg", "id": 807, "adult": false, "backdrop_path": "\/4U4q1zjIwCZTNkp6RKWkWPuC7uI.jpg", "original_language": "en", "original_title": "Se7en", "genre_ids": [80, 9648, 53], "title": "Se7en", "vote_average": 8.3, "overview": "Two homicide detectives are on a desperate hunt for a serial killer whose crimes are based on the \"seven deadly sins\" in this dark and haunting film that takes viewers from the tortured remains of one victim to the next. The seasoned Det. Sommerset researches each sin in an effort to get inside the killer's mind, while his novice partner, Mills, scoffs at his efforts to unravel the case.", "release_date": "1995-09-22" }, { "popularity": 54.837, "vote_count": 22784, "video": false, "poster_path": "\/qJ2tW6WMUDux911r6m7haRef0WH.jpg", "id": 155, "adult": false, "backdrop_path": "\/hkBaDkMWbLaf8B1lsWsKX7Ew3Xq.jpg", "original_language": "en", "original_title": "The Dark Knight", "genre_ids": [28, 80, 18, 53], "title": "The Dark Knight", "vote_average": 8.4, "overview": "Batman raises the stakes in his war on crime. With the help of Lt. Jim Gordon and District Attorney Harvey Dent, Batman sets out to dismantle the remaining criminal organizations that plague the streets. The partnership proves to be effective, but they soon find themselves prey to a reign of chaos unleashed by a rising criminal mastermind known to the terrified citizens of Gotham as the Joker.", "release_date": "2008-07-16" }, { "popularity": 66.049, "vote_count": 2431, "video": false, "poster_path": "\/5EufsDwXdY2CVttYOk2WtYhgKpa.jpg", "id": 570670, "adult": false, "backdrop_path": "\/uZMZyvarQuXLRqf3xdpdMqzdtjb.jpg", "original_language": "en", "original_title": "The Invisible Man", "genre_ids": [27, 878, 53], "title": "The Invisible Man", "vote_average": 7.2, "overview": "When Cecilia's abusive ex takes his own life and leaves her his fortune, she suspects his death was a hoax. As a series of coincidences turn lethal, Cecilia works to prove that she is being hunted by someone nobody can see.", "release_date": "2020-02-26" }, { "popularity": 56.301, "vote_count": 4879, "video": false, "poster_path": "\/pThyQovXQrw2m0s9x82twj48Jq4.jpg", "id": 546554, "adult": false, "backdrop_path": "\/AbRYlvwAKHs0YuyNO6NX9ofq4l6.jpg", "original_language": "en", "original_title": "Knives Out", "genre_ids": [35, 80, 18, 9648, 53], "title": "Knives Out", "vote_average": 7.8, "overview": "When renowned crime novelist Harlan Thrombey is found dead at his estate just after his 85th birthday, the inquisitive and debonair Detective Benoit Blanc is mysteriously enlisted to investigate. From Harlan's dysfunctional family to his devoted staff, Blanc sifts through a web of red herrings and self-serving lies to uncover the truth behind Harlan's untimely death.", "release_date": "2019-11-27" }, { "popularity": 72.695, "vote_count": 19, "video": false, "poster_path": "\/f4EAJ6PXNbxBb2xrdTrT2SlJlCH.jpg", "id": 714375, "adult": false, "backdrop_path": "\/lMbUiOZh8wELqY63v3ou54yTvEG.jpg", "original_language": "en", "original_title": "Fatal Affair", "genre_ids": [53], "title": "Fatal Affair", "vote_average": 4.1, "overview": "Ellie tries to mend her marriage with her husband Marcus after a brief encounter with an old friend, David, only to find that David is more dangerous and unstable than she'd realized.", "release_date": "2020-07-16" }, { "popularity": 46.632, "vote_count": 3, "video": false, "poster_path": "\/syBQHeRpWabNFXFXWJpgVbBDAbX.jpg", "id": 625568, "adult": false, "backdrop_path": "\/rKoim6u4SzuRqqq3u57BzsynF5U.jpg", "original_language": "en", "original_title": "Unhinged", "genre_ids": [53], "title": "Unhinged", "vote_average": 8.3, "overview": "A case of road rage turns into full-blown terror when an unstable driver follows a woman and her son.", "release_date": "2020-07-16" }, { "popularity": 43.147, "vote_count": 13, "video": false, "poster_path": "\/niyXFhGIk4W2WTcX2Eod8vx2Mfe.jpg", "id": 686245, "adult": false, "backdrop_path": "\/cVnCwyaKP7exbgaCMR9DJS4xleZ.jpg", "original_language": "en", "original_title": "Survive the Night", "genre_ids": [28, 53], "title": "Survive the Night", "vote_average": 5.4, "overview": "A disgraced doctor and his family are held hostage at their home by criminals on the run, when a robbery-gone-awry requires them to seek immediate medical attention.", "release_date": "2020-07-09" }, { "popularity": 43.188, "vote_count": 1089, "video": false, "poster_path": "\/wxPhn4ef1EAo5njxwBkAEVrlJJG.jpg", "id": 514847, "adult": false, "backdrop_path": "\/naXUDz0VGK7aaPlEpsuYW8kNVsr.jpg", "original_language": "en", "original_title": "The Hunt", "genre_ids": [28, 27, 53], "title": "The Hunt", "vote_average": 6.6, "overview": "Twelve strangers wake up in a clearing. They don't know where they are—or how they got there. In the shadow of a dark internet conspiracy theory, ruthless elitists gather at a remote location to hunt humans for sport. But their master plan is about to be derailed when one of the hunted turns the tables on her pursuers.", "release_date": "2020-03-11" }, { "popularity": 34.694, "vote_count": 2499, "video": false, "poster_path": "\/uTALxjQU8e1lhmNjP9nnJ3t2pRU.jpg", "id": 453405, "adult": false, "backdrop_path": "\/c3F4P2oauA7IQmy4hM0OmRt2W7d.jpg", "original_language": "en", "original_title": "Gemini Man", "genre_ids": [28, 53], "title": "Gemini Man", "vote_average": 6.3, "overview": "Henry Brogan is an elite 51-year-old assassin who's ready to call it quits after completing his 72nd job. His plans get turned upside down when he becomes the target of a mysterious operative who can seemingly predict his every move. To his horror, Brogan soon learns that the man who's trying to kill him is a younger, faster, cloned version of himself.", "release_date": "2019-10-02" }, { "popularity": 43.468, "vote_count": 12294, "video": false, "poster_path": "\/ode14q7WtDugFDp78fo9lCsmay9.jpg", "id": 198663, "adult": false, "backdrop_path": "\/vHJlbhsXrZ5yrO2KqCbGSIU6fRX.jpg", "original_language": "en", "original_title": "The Maze Runner", "genre_ids": [28, 9648, 878, 53], "title": "The Maze Runner", "vote_average": 7.1, "overview": "Set in a post-apocalyptic world, young Thomas is deposited in a community of boys after his memory is erased, soon learning they're all trapped in a maze that will require him to join forces with fellow “runners” for a shot at escape.", "release_date": "2014-09-10" }, { "popularity": 33.335, "vote_count": 1968, "video": false, "poster_path": "\/kTQ3J8oTTKofAVLYnds2cHUz9KO.jpg", "id": 522938, "adult": false, "backdrop_path": "\/3IHqwENGxOb36Jgeot4XHs3BTxz.jpg", "original_language": "en", "original_title": "Rambo: Last Blood", "genre_ids": [28, 18, 53], "title": "Rambo: Last Blood", "vote_average": 6.3, "overview": "After fighting his demons for decades, John Rambo now lives in peace on his family ranch in Arizona, but his rest is interrupted when Gabriela, the granddaughter of his housekeeper María, disappears after crossing the border into Mexico to meet her biological father. Rambo, who has become a true father figure for Gabriela over the years, undertakes a desperate and dangerous journey to find her.", "release_date": "2019-09-19" }, { "popularity": 38.73, "vote_count": 1918, "video": false, "poster_path": "\/p69QzIBbN06aTYqRRiCOY1emNBh.jpg", "id": 501170, "adult": false, "backdrop_path": "\/sZAXOoOMyCbBskmqR0f4LShxXtw.jpg", "original_language": "en", "original_title": "Doctor Sleep", "genre_ids": [18, 14, 27, 53], "title": "Doctor Sleep", "vote_average": 7.1, "overview": "Still irrevocably scarred by the trauma he endured as a child at the Overlook, Dan Torrance has fought to find some semblance of peace. But that peace is shattered when he encounters Abra, a courageous teenager with her own powerful extrasensory gift, known as the 'shine'. Instinctively recognising that Dan shares her power, Abra has sought him out, desperate for his help against the merciless Rose the Hat and her followers.", "release_date": "2019-10-30" }, { "popularity": 23.809, "vote_count": 737, "video": false, "poster_path": "\/wC0ax12N9GQ8vMXPEs4nES5AAiB.jpg", "id": 1965, "adult": false, "backdrop_path": "\/dNW7ftcqEAvKmDkuRPaLC4gnhwJ.jpg", "original_language": "en", "original_title": "A Perfect Murder", "genre_ids": [80, 18, 53], "title": "A Perfect Murder", "vote_average": 6.4, "overview": "Millionaire industrialist Steven Taylor is a man who has everything but what he craves most: the love and fidelity of his wife. A hugely successful player in the New York financial world, he considers her to be his most treasured acquisition. But she needs more than simply the role of dazzling accessory.", "release_date": "1998-06-05" }, { "popularity": 40.924, "vote_count": 19094, "video": false, "poster_path": "\/kK6iLyKi9Kg86qR2xPxOU94UEel.jpg", "id": 680, "adult": false, "backdrop_path": "\/eDMZmfnH50DDboUxTRnOYYpE9aY.jpg", "original_language": "en", "original_title": "Pulp Fiction", "genre_ids": [80, 53], "title": "Pulp Fiction", "vote_average": 8.5, "overview": "A burger-loving hit man, his philosophical partner, a drug-addled gangster's moll and a washed-up boxer converge in this sprawling, comedic crime caper. Their adventures unfurl in three stories that ingeniously trip back and forth in time.", "release_date": "1994-09-10" }] }